-------------------------------------------------------------------------------
Test set: com.travel.core.JitsVille.ReportTest
-------------------------------------------------------------------------------
Tests run: 3, Failures: 0, Errors: 0, Skipped: 0, Time elapsed: 0.001 sec
